…
  return(out_table)
  
}

bind_rows(
  nsduh_table_format(html = nsduh_html, 1, "marj"), 
  nsduh_table_format(html = nsduh_html, 4, "cocaine"), 
  nsduh_table_format(html = nsduh_html, 5, "heroin")
)
```

    ## # A tibble: 168 × 12
    ##    State `12+(2013-2014)` `12+(2014-2015)` `12-17(2013-2014)` `12-17(2014-2015)`
    ##    <chr> <chr>            <chr>            <chr>              <chr>             
    ##  1 Tota… 12.90a           13.36            13.28b             12.86             
    ##  2 Nort… 13.88a           14.66            13.98              13.51             
    ##  3 Midw… 12.40b           12.76            12.45              12.33             
    ##  4 South 11.24a           11.64            12.02              11.88             
    ##  5 West  15.27            15.62            15.53a             14.43             
    ##  6 Alab… 9.98             9.60             9.90               9.71              
    ##  7 Alas… 19.60a           21.92            17.30              18.44             
    ##  8 Ariz… 13.69            13.12            15.12              13.45             
    ##  9 Arka… 11.37            11.59            12.79              12.14             
    ## 10 Cali… 14.49            15.25            15.03              14.11             
    ## # ℹ 158 more rows
    ## # ℹ 7 more variables: `18-25(2013-2014)` <chr>, `18-25(2014-2015)` <chr>,
    ## #   `26+(2013-2014)` <chr>, `26+(2014-2015)` <chr>, `18+(2013-2014)` <chr>,
    ## #   `18+(2014-2015)` <chr>, drug <chr>

## DO THIS INSTEAD:

``` r
source("source/nsduh_table_format.R")

bind_rows(
  nsduh_table_format(html = nsduh_html, 1, "marj"), 
  nsduh_table_format(html = nsduh_html, 4, "cocaine"), 
  nsduh_table_format(html = nsduh_html, 5, "heroin")
)
```

    ## # A tibble: 168 × 12
    ##    State `12+(2013-2014)` `12+(2014-2015)` `12-17(2013-2014)` `12-17(2014-2015)`
    ##    <chr> <chr>            <chr>            <chr>              <chr>             
    ##  1 Tota… 12.90a           13.36            13.28b             12.86             
    ##  2 Nort… 13.88a           14.66            13.98              13.51             
    ##  3 Midw… 12.40b           12.76            12.45              12.33             
    ##  4 South 11.24a           11.64            12.02              11.88             
    ##  5 West  15.27            15.62            15.53a             14.43             
    ##  6 Alab… 9.98             9.60             9.90               9.71              
    ##  7 Alas… 19.60a           21.92            17.30              18.44             
    ##  8 Ariz… 13.69            13.12            15.12              13.45             
    ##  9 Arka… 11.37            11.59            12.79              12.14             
    ## 10 Cali… 14.49            15.25            15.03              14.11             
    ## # ℹ 158 more rows
    ## # ℹ 7 more variables: `18-25(2013-2014)` <chr>, `18-25(2014-2015)` <chr>,
    ## #   `26+(2013-2014)` <chr>, `26+(2014-2015)` <chr>, `18+(2013-2014)` <chr>,
    ## #   `18+(2014-2015)` <chr>, drug <chr>
